9
Lattice="66.2838953735768 0.0 0.0 0.0 63.470337122697096 0.0 0.0 0.0 61.46054426490418" Properties=species:S:1:pos:R:3:masses:R:1 pbc="F F F"
C       30.00291849      30.00000000      30.44829408      15.03500000
C       30.00129128      31.43688182      30.20104522      12.01100000
N       30.00000000      32.57712342      30.00484020      14.00700000
C       33.13728757      33.47033712      31.06154082      15.03500000
C       33.13941528      32.02941082      31.28400622      12.01100000
N       33.14110373      30.88595969      31.46054426      14.00700000
C       36.28389537      30.00453894      30.45484325      15.03500000
C       36.27696928      31.44029782      30.20124422      12.01100000
N       36.27147306      32.57964831      30.00000000      14.00700000
