30

C     18.58217400     13.02615600     15.09411000
H     19.64061700     12.79974900     14.95978200
H     18.00635500     12.10315800     15.16773400
H     18.44223200     13.59416600     16.01514200
C     18.09560400     13.80826700     13.97949600
N     17.70271500     14.43903400     13.09698200
C     16.89974000     17.31738500     14.76625100
H     15.89802200     17.73760000     14.67928500
H     17.13058500     16.76500700     13.85367200
H     17.62898100     18.11607600     14.90426900
C     16.94313600     16.40706600     15.88872000
N     16.98317900     15.67432300     16.77895200
C     14.23865100     13.57609700     17.15865100
H     14.78093900     14.52166700     17.20174600
H     14.13830900     13.17115900     18.16590300
H     13.24776200     13.73638800     16.73231500
C     14.97111300     12.64981400     16.32539700
N     15.55567800     11.92008900     15.65005700
C     14.43384900     13.65334900     12.81723000
H     13.46516800     13.25540300     12.51442200
H     14.94921600     12.90726700     13.42304700
H     15.04471800     13.88171600     11.94404700
C     14.23634400     14.85145100     13.59959700
N     14.06703900     15.80437500     14.22792000
C     10.89316700     15.78531400     15.21116600
H     10.20717800     16.24357800     14.49818000
H     11.85003700     16.30973800     15.17386600
H     10.46604800     15.86283800     16.21187000
C     11.11222600     14.39607600     14.86958700
N     11.31114400     13.29207200     14.60080900
