24
 C  H  N                                
 C   16.304417   17.232008   15.526414
 H   16.125500   18.124191   14.925308
 H   16.521505   17.535372   16.551126
 H   15.409151   16.604992   15.521636
 C   17.423550   16.491867   14.986273
 N   18.313431   15.899368   14.554873
 C   18.948326   12.667358   14.000682
 H   19.802980   12.240172   14.526130
 H   18.962374   13.754810   14.107469
 H   19.017954   12.409268   12.943570
 C   17.719301   12.141759   14.553551
 N   16.738882   11.725757   14.994790
 C   13.686882   12.449855   16.191750
 H   12.766952   12.031236   15.780029
 H   13.687429   12.320037   17.274733
 H   14.559710   11.945613   15.770763
 C   13.750401   13.856463   15.868789
 N   13.799397   14.977868   15.601076
 C   10.982704   15.320227   13.730659
 H   11.006886   15.280025   12.641318
 H   11.932158   15.710911   14.100808
 H   10.173484   15.981016   14.042615
 C   10.777776   13.992585   14.269593
 N   10.629426   12.934394   14.703055
