18
Lattice="34.010990983821586 0.0 0.0 0.0 30.99129558798691 0.0 0.0 0.0 30.028390905987976" Properties=species:S:1:pos:R:3:masses:R:1 pbc="F F F"
Ar      21.01099098      14.11611523      13.79905880      15.03500000
C       21.00146521      14.53928989      15.20784320      12.01100000
N       20.99378501      14.88047625      16.34368160      14.00700000
Ar      16.32715307      16.49137611      13.00000000      15.03500000
C       16.28745721      16.96284289      14.39283320      12.01100000
N       16.25545225      17.34296498      15.51581088      14.00700000
Ar      19.55627642      17.99129559      16.05515393      15.03500000
C       19.58004421      17.58745989      14.64087220      12.01100000
N       19.59920709      17.26186563      13.50060154      14.00700000
Ar      13.01360807      16.78976256      16.31473602      15.03500000
C       13.00607421      16.40985389      14.89366120      12.01100000
N       13.00000000      16.10355091      13.74791359      14.00700000
Ar      17.64424741      14.50761569      17.02839091      15.03500000
C       17.70020121      14.04408989      15.63345220      12.01100000
N       17.74531420      13.67037024      14.50877694      14.00700000
Ar      14.46380403      13.00000000      13.90389026      15.03500000
C       14.43767121      13.36508689      15.32862520      12.01100000
N       14.41660151      13.65943974      16.47732379      14.00700000
