15
Lattice="67.73131006713643 0.0 0.0 0.0 65.41527318593837 0.0 0.0 0.0 64.37340226770283" Properties=species:S:1:pos:R:3:masses:R:1 pbc="F F F"
C       37.73131007      31.09333724      32.28907194      15.03500000
C       37.23479936      31.89046460      31.17380108      12.01100000
N       36.84079189      32.52302726      30.28877475      14.00700000
C       36.03172671      35.41527319      31.95798756      15.03500000
C       36.08233136      34.48926360      33.08302508      12.01100000
N       36.12248882      33.75442609      33.97580177      14.00700000
C       33.37135724      31.65446010      34.37340227      15.03500000
C       34.11030836      30.73201160      33.51970208      12.01100000
N       34.69670510      30.00000000      32.84224590      14.00700000
C       33.58946053      31.72960491      30.00000000      15.03500000
C       33.37553936      32.93364860      30.79390208      12.01100000
N       33.20578161      33.88912086      31.42390531      14.00700000
C       30.00000000      33.87367364      32.40361262      15.03500000
C       30.25142136      32.47827360      32.06389208      12.01100000
N       30.45093748      31.37094998      31.79430589      14.00700000
