12
Lattice="35.92077854540631 0.0 0.0 0.0 29.660590043031377 0.0 0.0 0.0 27.394965352808704" Properties=species:S:1:pos:R:3:masses:R:1 pbc="F F F"
Ar      22.92077855      13.52394785      13.73010574      15.03500000
C       22.78138560      14.97267569      13.94364327      12.01100000
N       22.66899945      16.14071866      14.11580881      14.00700000
Ar      19.37934525      16.66059004      13.35197469      15.03500000
C       19.51659860      15.20902869      13.15711027      12.01100000
N       19.62725970      14.03870117      13.00000000      14.00700000
Ar      16.54170634      13.00000000      14.04303812      15.03500000
C       16.40433460      14.45155369      14.23787627      12.01100000
N       16.29357806      15.62187501      14.39496535      14.00700000
Ar      13.00000000      16.13614745      13.66393617      15.03500000
C       13.13979560      14.68754069      13.44984127      12.01100000
N       13.25250640      13.51959533      13.27722634      14.00700000
