12
Lattice="34.34513312718322 0.0 0.0 0.0 31.53410077595398 0.0 0.0 0.0 28.493419689143355" Properties=species:S:1:pos:R:3:masses:R:1 pbc="F F F"
Ar      18.66288938      18.53410078      14.82009410      15.03500000
C       19.79835522      17.77808691      14.26963851      12.01100000
N       20.71382938      17.16854751      13.82583136      14.00700000
Ar      21.34513313      13.95880266      13.27389003      15.03500000
C       20.09410622      13.42797891      13.83691651      12.01100000
N       19.08546046      13.00000000      14.29085901      14.00700000
Ar      16.06274893      13.71318014      15.49341969      15.03500000
C       16.12520622      15.14268291      15.15215451      12.01100000
N       16.17556268      16.29522559      14.87700801      14.00700000
Ar      13.34182825      16.62871729      13.00000000      15.03500000
C       13.15258122      15.27880491      13.55295851      12.01100000
N       13.00000000      14.19043231      13.99878366      14.00700000
